[
  {
    title: 'datatabls-react',
    desc: '📋 DataTablsReact : hooks - lightweight - fast - simple.',
    at:'',
    photos: 'https://i.ibb.co/nQYZpsq/npm.png',
    timestamp: '2019-11-02',
    repository: 'https://github.com/haikelfazzani/datatabls-react',
    homePage: 'https://www.npmjs.com/package/datatabls-react',
    tags: 'reactjs-datatables-cjs'
  },
  {
    title: 'github trends api',
    desc: 'github trends api repositories and developers for node js.',
    at:'',
    photos: 'https://i.ibb.co/nQYZpsq/npm.png',
    timestamp: '2019-11-02',
    repository: 'https://github.com/haikelfazzani/github-trends-api',
    homePage: 'https://www.npmjs.com/package/github-trends-api',
    tags: 'nodejs-cheerio-axios-web scraping'
  },
  {
    title: 'react atom snips',
    desc: 'Reactjs snippets vscode like for atom editor.',
    at:'',
    photos: 'https://i.ibb.co/hLvD557/ubuntu-atom-editor.jpg',
    timestamp: '2019-11-02',
    repository: 'https://github.com/haikelfazzani/react-atom-snips',
    homePage: '',
    tags: 'atom-react-snippets'
  },
  {
    title: 'makeuid',
    desc: 'Tiny utility to generate a unique id based on date and time.',
    at:'',
    photos: 'https://i.ibb.co/nQYZpsq/npm.png',
    timestamp: '2019-11-02',
    repository: 'https://github.com/haikelfazzani/makeuid',
    homePage: 'https://www.npmjs.com/package/makeuid',
    tags: 'package-nodejs-javascript-umd'
  },
  {
    title: 'node-rm',
    desc: '🦆 remove all extra spaces and comments from files and bundle it into one file.',
    at:'',
    photos: 'https://i.ibb.co/nQYZpsq/npm.png',
    timestamp: '2019-11-02',
    repository: 'https://github.com/haikelfazzani/node-rm',
    homePage: 'https://www.npmjs.com/package/node-rm',
    tags: 'package-nodejs-javascript-umd'
  },
  {
    title: 'node-file-env',
    desc: '💨  Loads environment variables into process.env fast and easy.',
    at:'',
    photos: 'https://i.ibb.co/nQYZpsq/npm.png',
    timestamp: '2019-11-02',
    repository: 'https://github.com/haikelfazzani/node-file-env',
    homePage: 'https://www.npmjs.com/package/node-file-env',
    tags: 'package-nodejs-javascript-umd'
  },
  {
    title: 'min-captcha',
    desc: '🔒🔑  A minimum & Simple Js captcha.',
    at:'',
    photos: 'https://i.ibb.co/bdXBJGp/jsca.png',
    timestamp: '2019-11-02',
    repository: 'https://github.com/haikelfazzani/min-captcha',
    homePage: 'https://www.npmjs.com/package/@haikel/min-captcha',
    tags: 'package-javascript'
  }
]